Planejamento experimental e Análise de dados agronômicos
…
Evaluating trait GY |============================================| 100% 00:00:58 

# A tibble: 100 × 44
   var   GEN       Y    CV   ACV   POLAR    Var Shukla  Wi_g  Wi_f  Wi_u Ecoval
   <chr> <chr> <dbl> <dbl> <dbl>   <dbl>  <dbl>  <dbl> <dbl> <dbl> <dbl>  <dbl>
 1 GY    1      4.94 11.1  10.1   0.339  0.604  0.149   83.1    NA  82.2  0.887
 2 GY    2      5.22  3.73  3.82 -0.507  0.0759 0.0201  96.2    NA  94.4  0.129
 3 GY    3      5.40  5.89  6.50 -0.0462 0.202  0.206   90.0    NA  94.1  1.22 
 4 GY    4      5.13 10.8  10.7   0.385  0.617  0.175   85.9    NA  84.9  1.04 
 5 GY    5      5.37  8.14  8.87  0.225  0.382  0.129   92.4    NA  87.3  0.767
 6 GY    6      5.16 11.3  11.3   0.435  0.680  0.277   82.9    NA  75.7  1.64 
 7 GY    7      5.40 10.1  11.2   0.424  0.597  0.140   92.9    NA  96.0  0.832
 8 GY    8      5.18  2.87  2.88 -0.752  0.0440 0.0991  90.4    NA  97.9  0.593
 9 GY    9      5.28  5.10  5.35 -0.215  0.145  0.0846  92.8    NA  93.2  0.508
10 GY    10     5.34  6.15  6.63 -0.0290 0.216  0.117   92.4    NA  91.7  0.698
# ℹ 90 more rows
# ℹ 32 more variables: bij <dbl>, Sij <dbl>, R2 <dbl>, ASTAB <dbl>, ASI <dbl>,
#   ASV <dbl>, AVAMGE <dbl>, DA <dbl>, DZ <dbl>, EV <dbl>, FA <dbl>,
#   MASI <dbl>, MASV <dbl>, SIPC <dbl>, ZA <dbl>, WAAS <dbl>, WAASB <dbl>,
#   HMGV <dbl>, RPGV <dbl>, HMRPGV <dbl>, Pi_a <dbl>, Pi_f <dbl>, Pi_u <dbl>,
#   Gai <dbl>, S1 <dbl>, S2 <dbl>, S3 <dbl>, S6 <dbl>, N1 <dbl>, N2 <dbl>,
#   N3 <dbl>, N4 <dbl>
…
